Python 3.8.5
----------------------------------------------------------------------
Copying CASE_test_3.5_0.5_lite in output_simulation ...
----------------------------------------------------------------------
@@@TIMING - Init:  5.142457008361816
----------------------------------------------------------------------

$ pimpleFoam -case output_simulation (from timestep 0.50 to 7.02)
----------------------------------------------------------------------
@@@TIMING - Total:  15986.33911037445
----------------------------------------------------------------------
