2021-09-27 18:49:55.027430: I tensorflow/core/platform/cpu_feature_guard.cc:142] This TensorFlow binary is optimized with oneAPI Deep Neural Network Library (oneDNN)to use the following CPU instructions in performance-critical operations:  SSE4.1 SSE4.2 AVX
To enable them in other operations, rebuild TensorFlow with the appropriate compiler flags.
2021-09-27 18:49:56.155931: I tensorflow/core/platform/profile_utils/cpu_utils.cc:104] CPU Frequency: 2600005000 Hz
2021-09-27 18:49:56.163141: I tensorflow/compiler/xla/service/service.cc:168] XLA service 0x564dee266430 initialized for platform Host (this does not guarantee that XLA will be used). Devices:
2021-09-27 18:49:56.163192: I tensorflow/compiler/xla/service/service.cc:176]   StreamExecutor device (0): Host, Default Version
Python 3.8.5
----------------------------------------------------------------------
@@@TimeRemoveDir:  0.0004639625549316406
Copying CASE_3.5_0.5_par in output_dataset_200 ...
----------------------------------------------------------------------
@@@TimeInit:  9.046577453613281 ts:  0.50
----------------------------------------------------------------------
decomposePar -case output_dataset_200 -force

$ mpirun -n 16 pimpleFoam -case output_dataset_200 -parallel (from timestep 0.50 to 0.51)
./parReconstructPar.sh -c output_dataset_200 -n 16
----------------------------------------------------------------------
@@@TimeFirstSimulation:  48.616143465042114 # start from ts:  0.52
----------------------------------------------------------------------
----------------------------------------------------------------------
@@@TimeDataset:  2.659421920776367 # processed ts:  ['0.49', '0.5', '0.51']
----------------------------------------------------------------------
----------------------------------------------------------------------
@@@TimePrediction:  5.044480085372925
----------------------------------------------------------------------
----------------------------------------------------------------------
@@@TimeRegenerate:  2.295328140258789 # writen ts:  [0.52, 0.53, 0.54, 0.55, 0.56, 0.57, 0.58, 0.59, 0.6, 0.61]
----------------------------------------------------------------------
decomposePar -case output_dataset_200 -force

$ mpirun -n 16 pimpleFoam -case output_dataset_200 -parallel (from timestep 0.62 to 0.71)
./parReconstructPar.sh -c output_dataset_200 -n 16
----------------------------------------------------------------------
@@@TimeSimulation:  68.15193676948547
----------------------------------------------------------------------
----------------------------------------------------------------------
@@@Time accumulated until ts 0.71:  135.8140425682068
----------------------------------------------------------------------
@@@@@@@@@@@@@@@@@@@@@@@@@@@@@@@@@@@@@@@@@@@@@@@@@@@@@@@@@@@@@@@@@@@@@@

NEXT TIMESTEP: 0.72

@@@@@@@@@@@@@@@@@@@@@@@@@@@@@@@@@@@@@@@@@@@@@@@@@@@@@@@@@@@@@@@@@@@@@@
----------------------------------------------------------------------
@@@TimeDataset:  1.993863582611084 # processed ts:  ['0.69', '0.7', '0.71']
----------------------------------------------------------------------
----------------------------------------------------------------------
@@@TimePrediction:  2.884770631790161
----------------------------------------------------------------------
----------------------------------------------------------------------
@@@TimeRegenerate:  2.064969062805176 # writen ts:  [0.72, 0.73, 0.74, 0.75, 0.76, 0.77, 0.78, 0.79, 0.8, 0.81]
----------------------------------------------------------------------
decomposePar -case output_dataset_200 -force

$ mpirun -n 16 pimpleFoam -case output_dataset_200 -parallel (from timestep 0.82 to 0.91)
./parReconstructPar.sh -c output_dataset_200 -n 16
----------------------------------------------------------------------
@@@TimeSimulation:  67.85156846046448
----------------------------------------------------------------------
----------------------------------------------------------------------
@@@Time accumulated until ts 0.91:  210.60932040214539
----------------------------------------------------------------------
@@@@@@@@@@@@@@@@@@@@@@@@@@@@@@@@@@@@@@@@@@@@@@@@@@@@@@@@@@@@@@@@@@@@@@

NEXT TIMESTEP: 0.92

@@@@@@@@@@@@@@@@@@@@@@@@@@@@@@@@@@@@@@@@@@@@@@@@@@@@@@@@@@@@@@@@@@@@@@
----------------------------------------------------------------------
@@@TimeDataset:  2.044086456298828 # processed ts:  ['0.89', '0.9', '0.91']
----------------------------------------------------------------------
----------------------------------------------------------------------
@@@TimePrediction:  2.9352006912231445
----------------------------------------------------------------------
----------------------------------------------------------------------
@@@TimeRegenerate:  2.219747543334961 # writen ts:  [0.92, 0.93, 0.94, 0.95, 0.96, 0.97, 0.98, 0.99, 1.0, 1.01]
----------------------------------------------------------------------
decomposePar -case output_dataset_200 -force

$ mpirun -n 16 pimpleFoam -case output_dataset_200 -parallel (from timestep 1.02 to 1.11)
./parReconstructPar.sh -c output_dataset_200 -n 16
----------------------------------------------------------------------
@@@TimeSimulation:  66.58614706993103
----------------------------------------------------------------------
----------------------------------------------------------------------
@@@Time accumulated until ts 1.11:  284.39460253715515
----------------------------------------------------------------------
@@@@@@@@@@@@@@@@@@@@@@@@@@@@@@@@@@@@@@@@@@@@@@@@@@@@@@@@@@@@@@@@@@@@@@

NEXT TIMESTEP: 1.12

@@@@@@@@@@@@@@@@@@@@@@@@@@@@@@@@@@@@@@@@@@@@@@@@@@@@@@@@@@@@@@@@@@@@@@
----------------------------------------------------------------------
@@@TimeDataset:  2.199065685272217 # processed ts:  ['1.09', '1.1', '1.11']
----------------------------------------------------------------------
----------------------------------------------------------------------
@@@TimePrediction:  3.0120158195495605
----------------------------------------------------------------------
----------------------------------------------------------------------
@@@TimeRegenerate:  2.003605842590332 # writen ts:  [1.12, 1.13, 1.14, 1.15, 1.16, 1.17, 1.18, 1.19, 1.2, 1.21]
----------------------------------------------------------------------
decomposePar -case output_dataset_200 -force

$ mpirun -n 16 pimpleFoam -case output_dataset_200 -parallel (from timestep 1.22 to 1.31)
./parReconstructPar.sh -c output_dataset_200 -n 16
----------------------------------------------------------------------
@@@TimeSimulation:  68.43608021736145
----------------------------------------------------------------------
----------------------------------------------------------------------
@@@Time accumulated until ts 1.31:  360.0454668998718
----------------------------------------------------------------------
@@@@@@@@@@@@@@@@@@@@@@@@@@@@@@@@@@@@@@@@@@@@@@@@@@@@@@@@@@@@@@@@@@@@@@

NEXT TIMESTEP: 1.32

@@@@@@@@@@@@@@@@@@@@@@@@@@@@@@@@@@@@@@@@@@@@@@@@@@@@@@@@@@@@@@@@@@@@@@
----------------------------------------------------------------------
@@@TimeDataset:  2.543907642364502 # processed ts:  ['1.29', '1.3', '1.31']
----------------------------------------------------------------------
----------------------------------------------------------------------
@@@TimePrediction:  2.953606605529785
----------------------------------------------------------------------
----------------------------------------------------------------------
@@@TimeRegenerate:  2.214233636856079 # writen ts:  [1.32, 1.33, 1.34, 1.35, 1.36, 1.37, 1.38, 1.39, 1.4, 1.41]
----------------------------------------------------------------------
decomposePar -case output_dataset_200 -force

$ mpirun -n 16 pimpleFoam -case output_dataset_200 -parallel (from timestep 1.42 to 1.51)
./parReconstructPar.sh -c output_dataset_200 -n 16
----------------------------------------------------------------------
@@@TimeSimulation:  66.50187087059021
----------------------------------------------------------------------
----------------------------------------------------------------------
@@@Time accumulated until ts 1.51:  434.2591848373413
----------------------------------------------------------------------
@@@@@@@@@@@@@@@@@@@@@@@@@@@@@@@@@@@@@@@@@@@@@@@@@@@@@@@@@@@@@@@@@@@@@@

NEXT TIMESTEP: 1.52

@@@@@@@@@@@@@@@@@@@@@@@@@@@@@@@@@@@@@@@@@@@@@@@@@@@@@@@@@@@@@@@@@@@@@@
----------------------------------------------------------------------
@@@TimeDataset:  2.4053573608398438 # processed ts:  ['1.49', '1.5', '1.51']
----------------------------------------------------------------------
----------------------------------------------------------------------
@@@TimePrediction:  2.954293727874756
----------------------------------------------------------------------
----------------------------------------------------------------------
@@@TimeRegenerate:  2.12075138092041 # writen ts:  [1.52, 1.53, 1.54, 1.55, 1.56, 1.57, 1.58, 1.59, 1.6, 1.61]
----------------------------------------------------------------------
decomposePar -case output_dataset_200 -force

$ mpirun -n 16 pimpleFoam -case output_dataset_200 -parallel (from timestep 1.62 to 1.71)
./parReconstructPar.sh -c output_dataset_200 -n 16
----------------------------------------------------------------------
@@@TimeSimulation:  66.25250315666199
----------------------------------------------------------------------
----------------------------------------------------------------------
@@@Time accumulated until ts 1.71:  507.9921872615814
----------------------------------------------------------------------
@@@@@@@@@@@@@@@@@@@@@@@@@@@@@@@@@@@@@@@@@@@@@@@@@@@@@@@@@@@@@@@@@@@@@@

NEXT TIMESTEP: 1.72

@@@@@@@@@@@@@@@@@@@@@@@@@@@@@@@@@@@@@@@@@@@@@@@@@@@@@@@@@@@@@@@@@@@@@@
----------------------------------------------------------------------
@@@TimeDataset:  2.468191385269165 # processed ts:  ['1.69', '1.7', '1.71']
----------------------------------------------------------------------
----------------------------------------------------------------------
@@@TimePrediction:  2.9425063133239746
----------------------------------------------------------------------
----------------------------------------------------------------------
@@@TimeRegenerate:  2.098798990249634 # writen ts:  [1.72, 1.73, 1.74, 1.75, 1.76, 1.77, 1.78, 1.79, 1.8, 1.81]
----------------------------------------------------------------------
decomposePar -case output_dataset_200 -force

$ mpirun -n 16 pimpleFoam -case output_dataset_200 -parallel (from timestep 1.82 to 1.91)
./parReconstructPar.sh -c output_dataset_200 -n 16
----------------------------------------------------------------------
@@@TimeSimulation:  66.47078895568848
----------------------------------------------------------------------
----------------------------------------------------------------------
@@@Time accumulated until ts 1.91:  581.9725821018219
----------------------------------------------------------------------
@@@@@@@@@@@@@@@@@@@@@@@@@@@@@@@@@@@@@@@@@@@@@@@@@@@@@@@@@@@@@@@@@@@@@@

NEXT TIMESTEP: 1.92

@@@@@@@@@@@@@@@@@@@@@@@@@@@@@@@@@@@@@@@@@@@@@@@@@@@@@@@@@@@@@@@@@@@@@@
----------------------------------------------------------------------
@@@TimeDataset:  2.2986111640930176 # processed ts:  ['1.89', '1.9', '1.91']
----------------------------------------------------------------------
----------------------------------------------------------------------
@@@TimePrediction:  2.8669495582580566
----------------------------------------------------------------------
----------------------------------------------------------------------
@@@TimeRegenerate:  2.784067153930664 # writen ts:  [1.92, 1.93, 1.94, 1.95, 1.96, 1.97, 1.98, 1.99, 2.0, 2.01]
----------------------------------------------------------------------
decomposePar -case output_dataset_200 -force

$ mpirun -n 16 pimpleFoam -case output_dataset_200 -parallel (from timestep 2.02 to 2.11)
./parReconstructPar.sh -c output_dataset_200 -n 16
----------------------------------------------------------------------
@@@TimeSimulation:  69.39650559425354
----------------------------------------------------------------------
----------------------------------------------------------------------
@@@Time accumulated until ts 2.11:  659.3188061714172
----------------------------------------------------------------------
@@@@@@@@@@@@@@@@@@@@@@@@@@@@@@@@@@@@@@@@@@@@@@@@@@@@@@@@@@@@@@@@@@@@@@

NEXT TIMESTEP: 2.12

@@@@@@@@@@@@@@@@@@@@@@@@@@@@@@@@@@@@@@@@@@@@@@@@@@@@@@@@@@@@@@@@@@@@@@
----------------------------------------------------------------------
@@@TimeDataset:  2.360227108001709 # processed ts:  ['2.09', '2.1', '2.11']
----------------------------------------------------------------------
----------------------------------------------------------------------
@@@TimePrediction:  2.9217052459716797
----------------------------------------------------------------------
----------------------------------------------------------------------
@@@TimeRegenerate:  2.3709309101104736 # writen ts:  [2.12, 2.13, 2.14, 2.15, 2.16, 2.17, 2.18, 2.19, 2.2, 2.21]
----------------------------------------------------------------------
decomposePar -case output_dataset_200 -force

$ mpirun -n 16 pimpleFoam -case output_dataset_200 -parallel (from timestep 2.22 to 2.31)
./parReconstructPar.sh -c output_dataset_200 -n 16
----------------------------------------------------------------------
@@@TimeSimulation:  68.18359756469727
----------------------------------------------------------------------
----------------------------------------------------------------------
@@@Time accumulated until ts 2.31:  735.1553776264191
----------------------------------------------------------------------
@@@@@@@@@@@@@@@@@@@@@@@@@@@@@@@@@@@@@@@@@@@@@@@@@@@@@@@@@@@@@@@@@@@@@@

NEXT TIMESTEP: 2.32

@@@@@@@@@@@@@@@@@@@@@@@@@@@@@@@@@@@@@@@@@@@@@@@@@@@@@@@@@@@@@@@@@@@@@@
----------------------------------------------------------------------
@@@TimeDataset:  2.288590908050537 # processed ts:  ['2.29', '2.3', '2.31']
----------------------------------------------------------------------
----------------------------------------------------------------------
@@@TimePrediction:  2.919870376586914
----------------------------------------------------------------------
----------------------------------------------------------------------
@@@TimeRegenerate:  2.1023454666137695 # writen ts:  [2.32, 2.33, 2.34, 2.35, 2.36, 2.37, 2.38, 2.39, 2.4, 2.41]
----------------------------------------------------------------------
decomposePar -case output_dataset_200 -force

$ mpirun -n 16 pimpleFoam -case output_dataset_200 -parallel (from timestep 2.42 to 2.51)
./parReconstructPar.sh -c output_dataset_200 -n 16
----------------------------------------------------------------------
@@@TimeSimulation:  67.70451164245605
----------------------------------------------------------------------
----------------------------------------------------------------------
@@@Time accumulated until ts 2.51:  810.170797586441
----------------------------------------------------------------------
@@@@@@@@@@@@@@@@@@@@@@@@@@@@@@@@@@@@@@@@@@@@@@@@@@@@@@@@@@@@@@@@@@@@@@

NEXT TIMESTEP: 2.52

@@@@@@@@@@@@@@@@@@@@@@@@@@@@@@@@@@@@@@@@@@@@@@@@@@@@@@@@@@@@@@@@@@@@@@
----------------------------------------------------------------------
@@@TimeDataset:  2.322998523712158 # processed ts:  ['2.49', '2.5', '2.51']
----------------------------------------------------------------------
----------------------------------------------------------------------
@@@TimePrediction:  2.901233196258545
----------------------------------------------------------------------
----------------------------------------------------------------------
@@@TimeRegenerate:  1.9262340068817139 # writen ts:  [2.52, 2.53, 2.54, 2.55, 2.56, 2.57, 2.58, 2.59, 2.6, 2.61]
----------------------------------------------------------------------
decomposePar -case output_dataset_200 -force

$ mpirun -n 16 pimpleFoam -case output_dataset_200 -parallel (from timestep 2.62 to 2.71)
./parReconstructPar.sh -c output_dataset_200 -n 16
----------------------------------------------------------------------
@@@TimeSimulation:  62.4463586807251
----------------------------------------------------------------------
----------------------------------------------------------------------
@@@Time accumulated until ts 2.71:  879.7677187919617
----------------------------------------------------------------------
@@@@@@@@@@@@@@@@@@@@@@@@@@@@@@@@@@@@@@@@@@@@@@@@@@@@@@@@@@@@@@@@@@@@@@

NEXT TIMESTEP: 2.72

@@@@@@@@@@@@@@@@@@@@@@@@@@@@@@@@@@@@@@@@@@@@@@@@@@@@@@@@@@@@@@@@@@@@@@
----------------------------------------------------------------------
@@@TimeDataset:  2.416752815246582 # processed ts:  ['2.69', '2.7', '2.71']
----------------------------------------------------------------------
----------------------------------------------------------------------
@@@TimePrediction:  2.8767054080963135
----------------------------------------------------------------------
----------------------------------------------------------------------
@@@TimeRegenerate:  1.8580753803253174 # writen ts:  [2.72, 2.73, 2.74, 2.75, 2.76, 2.77, 2.78, 2.79, 2.8, 2.81]
----------------------------------------------------------------------
decomposePar -case output_dataset_200 -force

$ mpirun -n 16 pimpleFoam -case output_dataset_200 -parallel (from timestep 2.82 to 2.91)
./parReconstructPar.sh -c output_dataset_200 -n 16
----------------------------------------------------------------------
@@@TimeSimulation:  62.49264168739319
----------------------------------------------------------------------
----------------------------------------------------------------------
@@@Time accumulated until ts 2.91:  949.4119966030121
----------------------------------------------------------------------
@@@@@@@@@@@@@@@@@@@@@@@@@@@@@@@@@@@@@@@@@@@@@@@@@@@@@@@@@@@@@@@@@@@@@@

NEXT TIMESTEP: 2.92

@@@@@@@@@@@@@@@@@@@@@@@@@@@@@@@@@@@@@@@@@@@@@@@@@@@@@@@@@@@@@@@@@@@@@@
----------------------------------------------------------------------
@@@TimeDataset:  2.332592010498047 # processed ts:  ['2.89', '2.9', '2.91']
----------------------------------------------------------------------
----------------------------------------------------------------------
@@@TimePrediction:  2.8609836101531982
----------------------------------------------------------------------
----------------------------------------------------------------------
@@@TimeRegenerate:  2.4660580158233643 # writen ts:  [2.92, 2.93, 2.94, 2.95, 2.96, 2.97, 2.98, 2.99, 3.0, 3.01]
----------------------------------------------------------------------
decomposePar -case output_dataset_200 -force

$ mpirun -n 16 pimpleFoam -case output_dataset_200 -parallel (from timestep 3.02 to 3.11)
./parReconstructPar.sh -c output_dataset_200 -n 16
----------------------------------------------------------------------
@@@TimeSimulation:  62.59695029258728
----------------------------------------------------------------------
----------------------------------------------------------------------
@@@Time accumulated until ts 3.11:  1019.6686911582947
----------------------------------------------------------------------
@@@@@@@@@@@@@@@@@@@@@@@@@@@@@@@@@@@@@@@@@@@@@@@@@@@@@@@@@@@@@@@@@@@@@@

NEXT TIMESTEP: 3.12

@@@@@@@@@@@@@@@@@@@@@@@@@@@@@@@@@@@@@@@@@@@@@@@@@@@@@@@@@@@@@@@@@@@@@@
----------------------------------------------------------------------
@@@TimeDataset:  2.772730588912964 # processed ts:  ['3.09', '3.1', '3.11']
----------------------------------------------------------------------
----------------------------------------------------------------------
@@@TimePrediction:  2.8671977519989014
----------------------------------------------------------------------
----------------------------------------------------------------------
@@@TimeRegenerate:  1.9020450115203857 # writen ts:  [3.12, 3.13, 3.14, 3.15, 3.16, 3.17, 3.18, 3.19, 3.2, 3.21]
----------------------------------------------------------------------
decomposePar -case output_dataset_200 -force

$ mpirun -n 16 pimpleFoam -case output_dataset_200 -parallel (from timestep 3.22 to 3.31)
./parReconstructPar.sh -c output_dataset_200 -n 16
----------------------------------------------------------------------
@@@TimeSimulation:  65.21359443664551
----------------------------------------------------------------------
----------------------------------------------------------------------
@@@Time accumulated until ts 3.31:  1092.424369096756
----------------------------------------------------------------------
@@@@@@@@@@@@@@@@@@@@@@@@@@@@@@@@@@@@@@@@@@@@@@@@@@@@@@@@@@@@@@@@@@@@@@

NEXT TIMESTEP: 3.32

@@@@@@@@@@@@@@@@@@@@@@@@@@@@@@@@@@@@@@@@@@@@@@@@@@@@@@@@@@@@@@@@@@@@@@
----------------------------------------------------------------------
@@@TimeDataset:  2.7309083938598633 # processed ts:  ['3.29', '3.3', '3.31']
----------------------------------------------------------------------
----------------------------------------------------------------------
@@@TimePrediction:  2.9636518955230713
----------------------------------------------------------------------
----------------------------------------------------------------------
@@@TimeRegenerate:  2.169757843017578 # writen ts:  [3.32, 3.33, 3.34, 3.35, 3.36, 3.37, 3.38, 3.39, 3.4, 3.41]
----------------------------------------------------------------------
decomposePar -case output_dataset_200 -force

$ mpirun -n 16 pimpleFoam -case output_dataset_200 -parallel (from timestep 3.42 to 3.51)
./parReconstructPar.sh -c output_dataset_200 -n 16
----------------------------------------------------------------------
@@@TimeSimulation:  69.5951611995697
----------------------------------------------------------------------
----------------------------------------------------------------------
@@@Time accumulated until ts 3.51:  1169.8917541503906
----------------------------------------------------------------------
@@@@@@@@@@@@@@@@@@@@@@@@@@@@@@@@@@@@@@@@@@@@@@@@@@@@@@@@@@@@@@@@@@@@@@

NEXT TIMESTEP: 3.52

@@@@@@@@@@@@@@@@@@@@@@@@@@@@@@@@@@@@@@@@@@@@@@@@@@@@@@@@@@@@@@@@@@@@@@
----------------------------------------------------------------------
@@@TimeDataset:  2.375203847885132 # processed ts:  ['3.49', '3.5', '3.51']
----------------------------------------------------------------------
----------------------------------------------------------------------
@@@TimePrediction:  3.0026910305023193
----------------------------------------------------------------------
----------------------------------------------------------------------
@@@TimeRegenerate:  1.92390775680542 # writen ts:  [3.52, 3.53, 3.54, 3.55, 3.56, 3.57, 3.58, 3.59, 3.6, 3.61]
----------------------------------------------------------------------
decomposePar -case output_dataset_200 -force

$ mpirun -n 16 pimpleFoam -case output_dataset_200 -parallel (from timestep 3.62 to 3.71)
./parReconstructPar.sh -c output_dataset_200 -n 16
----------------------------------------------------------------------
@@@TimeSimulation:  70.51656126976013
----------------------------------------------------------------------
----------------------------------------------------------------------
@@@Time accumulated until ts 3.71:  1247.710221529007
----------------------------------------------------------------------
@@@@@@@@@@@@@@@@@@@@@@@@@@@@@@@@@@@@@@@@@@@@@@@@@@@@@@@@@@@@@@@@@@@@@@

NEXT TIMESTEP: 3.72

@@@@@@@@@@@@@@@@@@@@@@@@@@@@@@@@@@@@@@@@@@@@@@@@@@@@@@@@@@@@@@@@@@@@@@
----------------------------------------------------------------------
@@@TimeDataset:  2.4561944007873535 # processed ts:  ['3.69', '3.7', '3.71']
----------------------------------------------------------------------
----------------------------------------------------------------------
@@@TimePrediction:  2.918792486190796
----------------------------------------------------------------------
----------------------------------------------------------------------
@@@TimeRegenerate:  2.5754215717315674 # writen ts:  [3.72, 3.73, 3.74, 3.75, 3.76, 3.77, 3.78, 3.79, 3.8, 3.81]
----------------------------------------------------------------------
decomposePar -case output_dataset_200 -force

$ mpirun -n 16 pimpleFoam -case output_dataset_200 -parallel (from timestep 3.82 to 3.91)
./parReconstructPar.sh -c output_dataset_200 -n 16
----------------------------------------------------------------------
@@@TimeSimulation:  66.77532744407654
----------------------------------------------------------------------
----------------------------------------------------------------------
@@@Time accumulated until ts 3.91:  1322.4360835552216
----------------------------------------------------------------------
@@@@@@@@@@@@@@@@@@@@@@@@@@@@@@@@@@@@@@@@@@@@@@@@@@@@@@@@@@@@@@@@@@@@@@

NEXT TIMESTEP: 3.92

@@@@@@@@@@@@@@@@@@@@@@@@@@@@@@@@@@@@@@@@@@@@@@@@@@@@@@@@@@@@@@@@@@@@@@
----------------------------------------------------------------------
@@@TimeDataset:  2.3404505252838135 # processed ts:  ['3.89', '3.9', '3.91']
----------------------------------------------------------------------
----------------------------------------------------------------------
@@@TimePrediction:  2.954346179962158
----------------------------------------------------------------------
----------------------------------------------------------------------
@@@TimeRegenerate:  2.4784698486328125 # writen ts:  [3.92, 3.93, 3.94, 3.95, 3.96, 3.97, 3.98, 3.99, 4.0, 4.01]
----------------------------------------------------------------------
decomposePar -case output_dataset_200 -force

$ mpirun -n 16 pimpleFoam -case output_dataset_200 -parallel (from timestep 4.02 to 4.11)
./parReconstructPar.sh -c output_dataset_200 -n 16
----------------------------------------------------------------------
@@@TimeSimulation:  66.55263805389404
----------------------------------------------------------------------
----------------------------------------------------------------------
@@@Time accumulated until ts 4.11:  1396.7620990276337
----------------------------------------------------------------------
@@@@@@@@@@@@@@@@@@@@@@@@@@@@@@@@@@@@@@@@@@@@@@@@@@@@@@@@@@@@@@@@@@@@@@

NEXT TIMESTEP: 4.12

@@@@@@@@@@@@@@@@@@@@@@@@@@@@@@@@@@@@@@@@@@@@@@@@@@@@@@@@@@@@@@@@@@@@@@
----------------------------------------------------------------------
@@@TimeDataset:  2.370361089706421 # processed ts:  ['4.09', '4.1', '4.11']
----------------------------------------------------------------------
----------------------------------------------------------------------
@@@TimePrediction:  2.941602945327759
----------------------------------------------------------------------
----------------------------------------------------------------------
@@@TimeRegenerate:  2.5271639823913574 # writen ts:  [4.12, 4.13, 4.14, 4.15, 4.16, 4.17, 4.18, 4.19, 4.2, 4.21]
----------------------------------------------------------------------
decomposePar -case output_dataset_200 -force

$ mpirun -n 16 pimpleFoam -case output_dataset_200 -parallel (from timestep 4.22 to 4.31)
./parReconstructPar.sh -c output_dataset_200 -n 16
----------------------------------------------------------------------
@@@TimeSimulation:  70.48890805244446
----------------------------------------------------------------------
----------------------------------------------------------------------
@@@Time accumulated until ts 4.31:  1475.0902416706085
----------------------------------------------------------------------
@@@@@@@@@@@@@@@@@@@@@@@@@@@@@@@@@@@@@@@@@@@@@@@@@@@@@@@@@@@@@@@@@@@@@@

NEXT TIMESTEP: 4.32

@@@@@@@@@@@@@@@@@@@@@@@@@@@@@@@@@@@@@@@@@@@@@@@@@@@@@@@@@@@@@@@@@@@@@@
----------------------------------------------------------------------
@@@TimeDataset:  2.510507822036743 # processed ts:  ['4.29', '4.3', '4.31']
----------------------------------------------------------------------
----------------------------------------------------------------------
@@@TimePrediction:  2.998338222503662
----------------------------------------------------------------------
----------------------------------------------------------------------
@@@TimeRegenerate:  2.428061008453369 # writen ts:  [4.32, 4.33, 4.34, 4.35, 4.36, 4.37, 4.38, 4.39, 4.4, 4.41]
----------------------------------------------------------------------
decomposePar -case output_dataset_200 -force

$ mpirun -n 16 pimpleFoam -case output_dataset_200 -parallel (from timestep 4.42 to 4.51)
./parReconstructPar.sh -c output_dataset_200 -n 16
----------------------------------------------------------------------
@@@TimeSimulation:  68.00549983978271
----------------------------------------------------------------------
----------------------------------------------------------------------
@@@Time accumulated until ts 4.51:  1551.0327970981598
----------------------------------------------------------------------
@@@@@@@@@@@@@@@@@@@@@@@@@@@@@@@@@@@@@@@@@@@@@@@@@@@@@@@@@@@@@@@@@@@@@@

NEXT TIMESTEP: 4.52

@@@@@@@@@@@@@@@@@@@@@@@@@@@@@@@@@@@@@@@@@@@@@@@@@@@@@@@@@@@@@@@@@@@@@@
----------------------------------------------------------------------
@@@TimeDataset:  2.3649933338165283 # processed ts:  ['4.49', '4.5', '4.51']
----------------------------------------------------------------------
----------------------------------------------------------------------
@@@TimePrediction:  2.9623520374298096
----------------------------------------------------------------------
----------------------------------------------------------------------
@@@TimeRegenerate:  1.967777967453003 # writen ts:  [4.52, 4.53, 4.54, 4.55, 4.56, 4.57, 4.58, 4.59, 4.6, 4.61]
----------------------------------------------------------------------
decomposePar -case output_dataset_200 -force

$ mpirun -n 16 pimpleFoam -case output_dataset_200 -parallel (from timestep 4.62 to 4.71)
./parReconstructPar.sh -c output_dataset_200 -n 16
----------------------------------------------------------------------
@@@TimeSimulation:  69.5316231250763
----------------------------------------------------------------------
----------------------------------------------------------------------
@@@Time accumulated until ts 4.71:  1627.8596575260162
----------------------------------------------------------------------
@@@@@@@@@@@@@@@@@@@@@@@@@@@@@@@@@@@@@@@@@@@@@@@@@@@@@@@@@@@@@@@@@@@@@@

NEXT TIMESTEP: 4.72

@@@@@@@@@@@@@@@@@@@@@@@@@@@@@@@@@@@@@@@@@@@@@@@@@@@@@@@@@@@@@@@@@@@@@@
----------------------------------------------------------------------
@@@TimeDataset:  2.396789789199829 # processed ts:  ['4.69', '4.7', '4.71']
----------------------------------------------------------------------
----------------------------------------------------------------------
@@@TimePrediction:  2.9181487560272217
----------------------------------------------------------------------
----------------------------------------------------------------------
@@@TimeRegenerate:  2.5015714168548584 # writen ts:  [4.72, 4.73, 4.74, 4.75, 4.76, 4.77, 4.78, 4.79, 4.8, 4.81]
----------------------------------------------------------------------
decomposePar -case output_dataset_200 -force

$ mpirun -n 16 pimpleFoam -case output_dataset_200 -parallel (from timestep 4.82 to 4.91)
./parReconstructPar.sh -c output_dataset_200 -n 16
----------------------------------------------------------------------
@@@TimeSimulation:  68.64531946182251
----------------------------------------------------------------------
----------------------------------------------------------------------
@@@Time accumulated until ts 4.91:  1704.321615934372
----------------------------------------------------------------------
@@@@@@@@@@@@@@@@@@@@@@@@@@@@@@@@@@@@@@@@@@@@@@@@@@@@@@@@@@@@@@@@@@@@@@

NEXT TIMESTEP: 4.92

@@@@@@@@@@@@@@@@@@@@@@@@@@@@@@@@@@@@@@@@@@@@@@@@@@@@@@@@@@@@@@@@@@@@@@
----------------------------------------------------------------------
@@@TimeDataset:  2.6232306957244873 # processed ts:  ['4.89', '4.9', '4.91']
----------------------------------------------------------------------
----------------------------------------------------------------------
@@@TimePrediction:  2.9206180572509766
----------------------------------------------------------------------
----------------------------------------------------------------------
@@@TimeRegenerate:  2.0617058277130127 # writen ts:  [4.92, 4.93, 4.94, 4.95, 4.96, 4.97, 4.98, 4.99, 5.0, 5.01]
----------------------------------------------------------------------
decomposePar -case output_dataset_200 -force

$ mpirun -n 16 pimpleFoam -case output_dataset_200 -parallel (from timestep 5.02 to 5.11)
./parReconstructPar.sh -c output_dataset_200 -n 16
----------------------------------------------------------------------
@@@TimeSimulation:  71.55056953430176
----------------------------------------------------------------------
----------------------------------------------------------------------
@@@Time accumulated until ts 5.11:  1783.47785282135
----------------------------------------------------------------------
@@@@@@@@@@@@@@@@@@@@@@@@@@@@@@@@@@@@@@@@@@@@@@@@@@@@@@@@@@@@@@@@@@@@@@

NEXT TIMESTEP: 5.12

@@@@@@@@@@@@@@@@@@@@@@@@@@@@@@@@@@@@@@@@@@@@@@@@@@@@@@@@@@@@@@@@@@@@@@
----------------------------------------------------------------------
@@@TimeDataset:  2.457007884979248 # processed ts:  ['5.09', '5.1', '5.11']
----------------------------------------------------------------------
----------------------------------------------------------------------
@@@TimePrediction:  3.0834031105041504
----------------------------------------------------------------------
----------------------------------------------------------------------
@@@TimeRegenerate:  2.125559091567993 # writen ts:  [5.12, 5.13, 5.14, 5.15, 5.16, 5.17, 5.18, 5.19, 5.2, 5.21]
----------------------------------------------------------------------
decomposePar -case output_dataset_200 -force

$ mpirun -n 16 pimpleFoam -case output_dataset_200 -parallel (from timestep 5.22 to 5.31)
./parReconstructPar.sh -c output_dataset_200 -n 16
----------------------------------------------------------------------
@@@TimeSimulation:  70.1723301410675
----------------------------------------------------------------------
----------------------------------------------------------------------
@@@Time accumulated until ts 5.31:  1861.316253900528
----------------------------------------------------------------------
@@@@@@@@@@@@@@@@@@@@@@@@@@@@@@@@@@@@@@@@@@@@@@@@@@@@@@@@@@@@@@@@@@@@@@

NEXT TIMESTEP: 5.32

@@@@@@@@@@@@@@@@@@@@@@@@@@@@@@@@@@@@@@@@@@@@@@@@@@@@@@@@@@@@@@@@@@@@@@
----------------------------------------------------------------------
@@@TimeDataset:  2.388887643814087 # processed ts:  ['5.29', '5.3', '5.31']
----------------------------------------------------------------------
----------------------------------------------------------------------
@@@TimePrediction:  3.0251545906066895
----------------------------------------------------------------------
----------------------------------------------------------------------
@@@TimeRegenerate:  1.8521759510040283 # writen ts:  [5.32, 5.33, 5.34, 5.35, 5.36, 5.37, 5.38, 5.39, 5.4, 5.41]
----------------------------------------------------------------------
decomposePar -case output_dataset_200 -force

$ mpirun -n 16 pimpleFoam -case output_dataset_200 -parallel (from timestep 5.42 to 5.51)
./parReconstructPar.sh -c output_dataset_200 -n 16
----------------------------------------------------------------------
@@@TimeSimulation:  68.3623559474945
----------------------------------------------------------------------
----------------------------------------------------------------------
@@@Time accumulated until ts 5.51:  1936.9449372291565
----------------------------------------------------------------------
@@@@@@@@@@@@@@@@@@@@@@@@@@@@@@@@@@@@@@@@@@@@@@@@@@@@@@@@@@@@@@@@@@@@@@

NEXT TIMESTEP: 5.52

@@@@@@@@@@@@@@@@@@@@@@@@@@@@@@@@@@@@@@@@@@@@@@@@@@@@@@@@@@@@@@@@@@@@@@
----------------------------------------------------------------------
@@@TimeDataset:  2.585902214050293 # processed ts:  ['5.49', '5.5', '5.51']
----------------------------------------------------------------------
----------------------------------------------------------------------
@@@TimePrediction:  2.9309771060943604
----------------------------------------------------------------------
----------------------------------------------------------------------
@@@TimeRegenerate:  2.263981342315674 # writen ts:  [5.52, 5.53, 5.54, 5.55, 5.56, 5.57, 5.58, 5.59, 5.6, 5.61]
----------------------------------------------------------------------
decomposePar -case output_dataset_200 -force

$ mpirun -n 16 pimpleFoam -case output_dataset_200 -parallel (from timestep 5.62 to 5.71)
./parReconstructPar.sh -c output_dataset_200 -n 16
----------------------------------------------------------------------
@@@TimeSimulation:  67.58502888679504
----------------------------------------------------------------------
----------------------------------------------------------------------
@@@Time accumulated until ts 5.71:  2012.3109335899353
----------------------------------------------------------------------
@@@@@@@@@@@@@@@@@@@@@@@@@@@@@@@@@@@@@@@@@@@@@@@@@@@@@@@@@@@@@@@@@@@@@@

NEXT TIMESTEP: 5.72

@@@@@@@@@@@@@@@@@@@@@@@@@@@@@@@@@@@@@@@@@@@@@@@@@@@@@@@@@@@@@@@@@@@@@@
----------------------------------------------------------------------
@@@TimeDataset:  2.4743924140930176 # processed ts:  ['5.69', '5.7', '5.71']
----------------------------------------------------------------------
----------------------------------------------------------------------
@@@TimePrediction:  2.90090012550354
----------------------------------------------------------------------
----------------------------------------------------------------------
@@@TimeRegenerate:  1.8160521984100342 # writen ts:  [5.72, 5.73, 5.74, 5.75, 5.76, 5.77, 5.78, 5.79, 5.8, 5.81]
----------------------------------------------------------------------
decomposePar -case output_dataset_200 -force

$ mpirun -n 16 pimpleFoam -case output_dataset_200 -parallel (from timestep 5.82 to 5.91)
./parReconstructPar.sh -c output_dataset_200 -n 16
----------------------------------------------------------------------
@@@TimeSimulation:  68.34563279151917
----------------------------------------------------------------------
----------------------------------------------------------------------
@@@Time accumulated until ts 5.91:  2087.8480195999146
----------------------------------------------------------------------
@@@@@@@@@@@@@@@@@@@@@@@@@@@@@@@@@@@@@@@@@@@@@@@@@@@@@@@@@@@@@@@@@@@@@@

NEXT TIMESTEP: 5.92

@@@@@@@@@@@@@@@@@@@@@@@@@@@@@@@@@@@@@@@@@@@@@@@@@@@@@@@@@@@@@@@@@@@@@@
----------------------------------------------------------------------
@@@TimeDataset:  2.5139689445495605 # processed ts:  ['5.89', '5.9', '5.91']
----------------------------------------------------------------------
----------------------------------------------------------------------
@@@TimePrediction:  2.9144341945648193
----------------------------------------------------------------------
----------------------------------------------------------------------
@@@TimeRegenerate:  1.8420610427856445 # writen ts:  [5.92, 5.93, 5.94, 5.95, 5.96, 5.97, 5.98, 5.99, 6.0, 6.01]
----------------------------------------------------------------------
decomposePar -case output_dataset_200 -force

$ mpirun -n 16 pimpleFoam -case output_dataset_200 -parallel (from timestep 6.02 to 6.11)
./parReconstructPar.sh -c output_dataset_200 -n 16
----------------------------------------------------------------------
@@@TimeSimulation:  74.99280047416687
----------------------------------------------------------------------
----------------------------------------------------------------------
@@@Time accumulated until ts 6.11:  2170.111392736435
----------------------------------------------------------------------
@@@@@@@@@@@@@@@@@@@@@@@@@@@@@@@@@@@@@@@@@@@@@@@@@@@@@@@@@@@@@@@@@@@@@@

NEXT TIMESTEP: 6.12

@@@@@@@@@@@@@@@@@@@@@@@@@@@@@@@@@@@@@@@@@@@@@@@@@@@@@@@@@@@@@@@@@@@@@@
----------------------------------------------------------------------
@@@TimeDataset:  2.4223885536193848 # processed ts:  ['6.09', '6.1', '6.11']
----------------------------------------------------------------------
----------------------------------------------------------------------
@@@TimePrediction:  2.888533353805542
----------------------------------------------------------------------
----------------------------------------------------------------------
@@@TimeRegenerate:  2.2385053634643555 # writen ts:  [6.12, 6.13, 6.14, 6.15, 6.16, 6.17, 6.18, 6.19, 6.2, 6.21]
----------------------------------------------------------------------
decomposePar -case output_dataset_200 -force

$ mpirun -n 16 pimpleFoam -case output_dataset_200 -parallel (from timestep 6.22 to 6.31)
./parReconstructPar.sh -c output_dataset_200 -n 16
----------------------------------------------------------------------
@@@TimeSimulation:  70.02653813362122
----------------------------------------------------------------------
----------------------------------------------------------------------
@@@Time accumulated until ts 6.31:  2247.6874532699585
----------------------------------------------------------------------
@@@@@@@@@@@@@@@@@@@@@@@@@@@@@@@@@@@@@@@@@@@@@@@@@@@@@@@@@@@@@@@@@@@@@@

NEXT TIMESTEP: 6.32

@@@@@@@@@@@@@@@@@@@@@@@@@@@@@@@@@@@@@@@@@@@@@@@@@@@@@@@@@@@@@@@@@@@@@@
----------------------------------------------------------------------
@@@TimeDataset:  2.5362186431884766 # processed ts:  ['6.29', '6.3', '6.31']
----------------------------------------------------------------------
----------------------------------------------------------------------
@@@TimePrediction:  2.9106271266937256
----------------------------------------------------------------------
----------------------------------------------------------------------
@@@TimeRegenerate:  2.5842487812042236 # writen ts:  [6.32, 6.33, 6.34, 6.35, 6.36, 6.37, 6.38, 6.39, 6.4, 6.41]
----------------------------------------------------------------------
decomposePar -case output_dataset_200 -force

$ mpirun -n 16 pimpleFoam -case output_dataset_200 -parallel (from timestep 6.42 to 6.51)
./parReconstructPar.sh -c output_dataset_200 -n 16
----------------------------------------------------------------------
@@@TimeSimulation:  69.43216228485107
----------------------------------------------------------------------
----------------------------------------------------------------------
@@@Time accumulated until ts 6.51:  2325.158725976944
----------------------------------------------------------------------
@@@@@@@@@@@@@@@@@@@@@@@@@@@@@@@@@@@@@@@@@@@@@@@@@@@@@@@@@@@@@@@@@@@@@@

NEXT TIMESTEP: 6.52

@@@@@@@@@@@@@@@@@@@@@@@@@@@@@@@@@@@@@@@@@@@@@@@@@@@@@@@@@@@@@@@@@@@@@@
----------------------------------------------------------------------
@@@TimeDataset:  2.7513461112976074 # processed ts:  ['6.49', '6.5', '6.51']
----------------------------------------------------------------------
----------------------------------------------------------------------
@@@TimePrediction:  2.9318971633911133
----------------------------------------------------------------------
----------------------------------------------------------------------
@@@TimeRegenerate:  2.3768444061279297 # writen ts:  [6.52, 6.53, 6.54, 6.55, 6.56, 6.57, 6.58, 6.59, 6.6, 6.61]
----------------------------------------------------------------------
decomposePar -case output_dataset_200 -force

$ mpirun -n 16 pimpleFoam -case output_dataset_200 -parallel (from timestep 6.62 to 6.71)
./parReconstructPar.sh -c output_dataset_200 -n 16
----------------------------------------------------------------------
@@@TimeSimulation:  71.547128200531
----------------------------------------------------------------------
----------------------------------------------------------------------
@@@Time accumulated until ts 6.71:  2404.7660598754883
----------------------------------------------------------------------
@@@@@@@@@@@@@@@@@@@@@@@@@@@@@@@@@@@@@@@@@@@@@@@@@@@@@@@@@@@@@@@@@@@@@@

NEXT TIMESTEP: 6.72

@@@@@@@@@@@@@@@@@@@@@@@@@@@@@@@@@@@@@@@@@@@@@@@@@@@@@@@@@@@@@@@@@@@@@@
----------------------------------------------------------------------
@@@TimeDataset:  2.384969472885132 # processed ts:  ['6.69', '6.7', '6.71']
----------------------------------------------------------------------
----------------------------------------------------------------------
@@@TimePrediction:  2.901059865951538
----------------------------------------------------------------------
----------------------------------------------------------------------
@@@TimeRegenerate:  2.0139293670654297 # writen ts:  [6.72, 6.73, 6.74, 6.75, 6.76, 6.77, 6.78, 6.79, 6.8, 6.81]
----------------------------------------------------------------------
decomposePar -case output_dataset_200 -force

$ mpirun -n 16 pimpleFoam -case output_dataset_200 -parallel (from timestep 6.82 to 6.91)
./parReconstructPar.sh -c output_dataset_200 -n 16
----------------------------------------------------------------------
@@@TimeSimulation:  70.71861457824707
----------------------------------------------------------------------
----------------------------------------------------------------------
@@@Time accumulated until ts 6.91:  2482.7847402095795
----------------------------------------------------------------------
@@@@@@@@@@@@@@@@@@@@@@@@@@@@@@@@@@@@@@@@@@@@@@@@@@@@@@@@@@@@@@@@@@@@@@

NEXT TIMESTEP: 6.92

@@@@@@@@@@@@@@@@@@@@@@@@@@@@@@@@@@@@@@@@@@@@@@@@@@@@@@@@@@@@@@@@@@@@@@
----------------------------------------------------------------------
@@@TimeDataset:  2.541288137435913 # processed ts:  ['6.89', '6.9', '6.91']
----------------------------------------------------------------------
----------------------------------------------------------------------
@@@TimePrediction:  3.005634069442749
----------------------------------------------------------------------
----------------------------------------------------------------------
@@@TimeRegenerate:  2.6635046005249023 # writen ts:  [6.92, 6.93, 6.94, 6.95, 6.96, 6.97, 6.98, 6.99, 7.0, 7.01]
----------------------------------------------------------------------
decomposePar -case output_dataset_200 -force

$ mpirun -n 16 pimpleFoam -case output_dataset_200 -parallel (from timestep 7.02 to 7.02)
./parReconstructPar.sh -c output_dataset_200 -n 16
----------------------------------------------------------------------
@@@TimeLastSimulation:  42.208824157714844
----------------------------------------------------------------------
----------------------------------------------------------------------
@@@Time accumulated until ts 7.02:  2533.2041051387787
----------------------------------------------------------------------
@@@@@@@@@@@@@@@@@@@@@@@@@@@@@@@@@@@@@@@@@@@@@@@@@@@@@@@@@@@@@@@@@@@@@@

NEXT TIMESTEP: 7.03

@@@@@@@@@@@@@@@@@@@@@@@@@@@@@@@@@@@@@@@@@@@@@@@@@@@@@@@@@@@@@@@@@@@@@@
----------------------------------------------------------------------
@@@TimeTotal:  2533.204161167145
----------------------------------------------------------------------
